analysis_Arnoud.R
…
# Descriptives ------------------------------------------------------------

# How many observed dates?
dat %>% count(date)

## # A tibble: 484 x 2
##          date     n
##        <date> <int>
## 1  2015-04-26   200
## 2  2015-04-27   200
## 3  2015-04-28   200
## 4  2015-04-29   200
## 5  2015-04-30   200
## 6  2015-05-01   200
## 7  2015-05-02   200
## 8  2015-05-03   200
## 9  2015-05-04   200
## 10 2015-05-05   200
## # ... with 474 more rows

# How many observed songs?
dat %>% count(id)

## # A tibble: 2,644 x 2
##                        id     n
##                    <fctr> <int>
## 1  00b50UtOuCsj4VFoX6vIZx   228
## 2  00cP99zN0bsUZSpXbAlQXg     7
## 3  00EXQo4oF8LyQMa8byKvGM     1
## 4  00heyVyt5EsJHNkCud8FVg     1
## 5  00HMEiBMDkbNCHLJL6zqVk     1
## 6  00iCRJ7pk3onHablkLyVH1    11
## 7  00IH8ZjI9ZGB51WRX1Oesj    48
## 8  00o6POeoYnf971C6EZ8Fil     3
## 9  00vqDUiq1UoIeYK1X8SlCS     3
## 10 00wNUmB4MzvMHlAt1hSLzL    67
## # ... with 2,634 more rows

# How many observed artists?
dat %>% count(artist)

## # A tibble: 842 x 2
##                 artist     n
##                 <fctr> <int>
## 1               *NSYNC    15
## 2  5 Seconds of Summer   123
## 3              50 Cent     1
## 4    A Great Big World     1
## 5        A R I Z O N A     4
## 6           A$AP Rocky    48
## 7                 ABBA     4
## 8                 Abel     1
## 9                AC/DC     3
## 10   Acda en de Munnik    17
## # ... with 832 more rows
…
